\BOOKMARK [0][-]{chapter*.1}{Nomenclature}{}% 1
\BOOKMARK [0][-]{chapter.1}{Introduction}{}% 2
\BOOKMARK [1][-]{section.1.1}{Purpose and scope of the work}{chapter.1}% 3
\BOOKMARK [1][-]{section.1.2}{Typical usages}{chapter.1}% 4
\BOOKMARK [0][-]{chapter.2}{Introduction to motion detection}{}% 5
\BOOKMARK [1][-]{section.2.1}{Input data - characteristic features}{chapter.2}% 6
\BOOKMARK [1][-]{section.2.2}{Movement detection terminology [1,3]}{chapter.2}% 7
\BOOKMARK [1][-]{section.2.3}{Problems connected with movement detection [2,7]}{chapter.2}% 8
\BOOKMARK [0][-]{chapter.3}{Literature research}{}% 9
\BOOKMARK [1][-]{section.3.1}{Classification of movement detection methods}{chapter.3}% 10
\BOOKMARK [2][-]{subsection.3.1.1}{Differential methods [4,5]}{section.3.1}% 11
\BOOKMARK [2][-]{subsection.3.1.2}{Gradient methods [6,8]}{section.3.1}% 12
\BOOKMARK [2][-]{subsection.3.1.3}{Correlation methods [9,10,11,12]}{section.3.1}% 13
\BOOKMARK [2][-]{subsection.3.1.4}{Frequency methods [8,13]}{section.3.1}% 14
\BOOKMARK [1][-]{section.3.2}{Review of popular algorithms}{chapter.3}% 15
\BOOKMARK [2][-]{subsection.3.2.1}{Simple movement detection}{section.3.2}% 16
\BOOKMARK [2][-]{subsection.3.2.2}{Simple movement detection with filtration and result enhancement}{section.3.2}% 17
\BOOKMARK [2][-]{subsection.3.2.3}{Phase correlation only [14]}{section.3.2}% 18
\BOOKMARK [2][-]{subsection.3.2.4}{Other algorithms}{section.3.2}% 19
\BOOKMARK [0][-]{chapter.4}{Environment setup}{}% 20
\BOOKMARK [1][-]{section.4.1}{Expectations}{chapter.4}% 21
\BOOKMARK [1][-]{section.4.2}{Hardware platform}{chapter.4}% 22
\BOOKMARK [1][-]{section.4.3}{Starting point - block diagram}{chapter.4}% 23
\BOOKMARK [0][-]{chapter.5}{Algorithm implementations}{}% 24
\BOOKMARK [1][-]{section.5.1}{Simple movement detection with and without filtration and result enhancement}{chapter.5}% 25
\BOOKMARK [2][-]{subsection.5.1.1}{Accelerators}{section.5.1}% 26
\BOOKMARK [1][-]{section.5.2}{Phase correlation only - sparse optical flow}{chapter.5}% 27
\BOOKMARK [2][-]{subsection.5.2.1}{Accelerators}{section.5.2}% 28
\BOOKMARK [0][-]{chapter.6}{Tests and results}{}% 29
\BOOKMARK [1][-]{section.6.1}{Resource and timing requirements}{chapter.6}% 30
\BOOKMARK [1][-]{section.6.2}{Speed}{chapter.6}% 31
\BOOKMARK [2][-]{subsection.6.2.1}{Simple movement detection with and without enhance}{section.6.2}% 32
\BOOKMARK [2][-]{subsection.6.2.2}{Phase correlation only}{section.6.2}% 33
\BOOKMARK [0][-]{chapter.7}{Summary}{}% 34
\BOOKMARK [1][-]{subsection.7.0.1}{Assessment of results}{chapter.7}% 35
\BOOKMARK [0][-]{subsection.7.0.1}{Bibliography}{}% 36
