\relax 
\providecommand\hyper@newdestlabel[2]{}
\providecommand\HyperFirstAtBeginDocument{\AtBeginDocument}
\HyperFirstAtBeginDocument{\ifx\hyper@anchor\@undefined
\global\let\oldcontentsline\contentsline
\gdef\contentsline#1#2#3#4{\oldcontentsline{#1}{#2}{#3}}
\global\let\oldnewlabel\newlabel
\gdef\newlabel#1#2{\newlabelxx{#1}#2}
\gdef\newlabelxx#1#2#3#4#5#6{\oldnewlabel{#1}{{#2}{#3}}}
\AtEndDocument{\ifx\hyper@anchor\@undefined
\let\contentsline\oldcontentsline
\let\newlabel\oldnewlabel
\fi}
\fi}
\global\let\hyper@last\relax 
\gdef\HyperFirstAtBeginDocument#1{#1}
\providecommand\HyField@AuxAddToFields[1]{}
\providecommand\HyField@AuxAddToCoFields[2]{}
\bibstyle{plabbrv}
\babel@aux{english}{}
\@writefile{toc}{\contentsline {chapter}{Nomenclature}{0}{chapter*.1}\protected@file@percent }
\@writefile{toc}{\contentsline {chapter}{\numberline {1}Introduction}{4}{chapter.1}\protected@file@percent }
\@writefile{lof}{\addvspace {10\p@ }}
\@writefile{lot}{\addvspace {10\p@ }}
\@writefile{toc}{\contentsline {section}{\numberline {1.1}Purpose and scope of the work}{4}{section.1.1}\protected@file@percent }
\@writefile{lof}{\contentsline {figure}{\numberline {1.1}{\ignorespaces Example of vision system.\relax }}{4}{figure.caption.4}\protected@file@percent }
\@writefile{toc}{\contentsline {section}{\numberline {1.2}Typical usages}{5}{section.1.2}\protected@file@percent }
\@writefile{toc}{\contentsline {chapter}{\numberline {2}Introduction to motion detection}{6}{chapter.2}\protected@file@percent }
\@writefile{lof}{\addvspace {10\p@ }}
\@writefile{lot}{\addvspace {10\p@ }}
\@writefile{toc}{\contentsline {section}{\numberline {2.1}Input data - characteristic features}{6}{section.2.1}\protected@file@percent }
\@writefile{toc}{\contentsline {section}{\numberline {2.2}Movement detection terminology [1,3]}{7}{section.2.2}\protected@file@percent }
\@writefile{lof}{\contentsline {figure}{\numberline {2.1}{\ignorespaces Typical dense optical flow output$.^{[1]}$\relax }}{7}{figure.caption.5}\protected@file@percent }
\@writefile{lof}{\contentsline {figure}{\numberline {2.2}{\ignorespaces Typical dense optical flow output.$^{[3]}$\relax }}{7}{figure.caption.6}\protected@file@percent }
\@writefile{toc}{\contentsline {section}{\numberline {2.3}Problems connected with movement detection [2,7]}{7}{section.2.3}\protected@file@percent }
\@writefile{lof}{\contentsline {figure}{\numberline {2.3}{\ignorespaces Example of new object problem.\relax }}{8}{figure.caption.7}\protected@file@percent }
\@writefile{lof}{\contentsline {figure}{\numberline {2.4}{\ignorespaces Example of similar texture problem.\relax }}{8}{figure.caption.8}\protected@file@percent }
\@writefile{lof}{\contentsline {figure}{\numberline {2.5}{\ignorespaces Example of obscuring problem.\relax }}{9}{figure.caption.9}\protected@file@percent }
\@writefile{lof}{\contentsline {figure}{\numberline {2.6}{\ignorespaces Aliasing.\relax }}{9}{figure.caption.10}\protected@file@percent }
\@writefile{lof}{\contentsline {figure}{\numberline {2.7}{\ignorespaces Aperture problem.$^{[2,7]}$\relax }}{10}{figure.caption.11}\protected@file@percent }
\@writefile{toc}{\contentsline {chapter}{\numberline {3}Literature research}{11}{chapter.3}\protected@file@percent }
\@writefile{lof}{\addvspace {10\p@ }}
\@writefile{lot}{\addvspace {10\p@ }}
\@writefile{toc}{\contentsline {section}{\numberline {3.1}Classification of movement detection methods}{11}{section.3.1}\protected@file@percent }
\@writefile{toc}{\contentsline {subsection}{\numberline {3.1.1}Differential methods [4,5]}{11}{subsection.3.1.1}\protected@file@percent }
\@writefile{lof}{\contentsline {figure}{\numberline {3.1}{\ignorespaces Typical MHI result.\relax }}{12}{figure.caption.17}\protected@file@percent }
\@writefile{toc}{\contentsline {subsection}{\numberline {3.1.2}Gradient methods [6,8]}{12}{subsection.3.1.2}\protected@file@percent }
\@writefile{toc}{\contentsline {subsection}{\numberline {3.1.3}Correlation methods [9,10,11,12]}{13}{subsection.3.1.3}\protected@file@percent }
\@writefile{lof}{\contentsline {figure}{\numberline {3.2}{\ignorespaces Image pyramid concept.\relax }}{14}{figure.caption.23}\protected@file@percent }
\@writefile{lof}{\contentsline {figure}{\numberline {3.3}{\ignorespaces Three steps method.\relax }}{14}{figure.caption.24}\protected@file@percent }
\@writefile{lof}{\contentsline {figure}{\numberline {3.4}{\ignorespaces Two Dimensional Logarithmic Method.\relax }}{15}{figure.caption.25}\protected@file@percent }
\@writefile{toc}{\contentsline {subsection}{\numberline {3.1.4}Frequency methods [8,13]}{15}{subsection.3.1.4}\protected@file@percent }
\@writefile{lof}{\contentsline {figure}{\numberline {3.5}{\ignorespaces Example of Fourier transformation.\relax }}{15}{figure.caption.26}\protected@file@percent }
\@writefile{toc}{\contentsline {section}{\numberline {3.2}Review of popular algorithms}{16}{section.3.2}\protected@file@percent }
\@writefile{toc}{\contentsline {subsection}{\numberline {3.2.1}Simple movement detection}{16}{subsection.3.2.1}\protected@file@percent }
\@writefile{lof}{\contentsline {figure}{\numberline {3.6}{\ignorespaces The simplest movement detection technique.\relax }}{16}{figure.caption.28}\protected@file@percent }
\@writefile{toc}{\contentsline {subsection}{\numberline {3.2.2}Simple movement detection with filtration and result enhancement}{16}{subsection.3.2.2}\protected@file@percent }
\@writefile{lof}{\contentsline {figure}{\numberline {3.7}{\ignorespaces Enhanced simple movement detection technique.\relax }}{17}{figure.caption.29}\protected@file@percent }
\@writefile{toc}{\contentsline {subsection}{\numberline {3.2.3}Phase correlation only [14]}{17}{subsection.3.2.3}\protected@file@percent }
\@writefile{lof}{\contentsline {figure}{\numberline {3.8}{\ignorespaces Result after IFT operation on phase correlation image - (15,30) candidate vector.\relax }}{17}{figure.caption.32}\protected@file@percent }
\@writefile{lof}{\contentsline {figure}{\numberline {3.9}{\ignorespaces Phase correlation only.\relax }}{18}{figure.caption.34}\protected@file@percent }
\@writefile{toc}{\contentsline {subsection}{\numberline {3.2.4}Other algorithms}{18}{subsection.3.2.4}\protected@file@percent }
\@writefile{toc}{\contentsline {subsubsection}{Horn and Schunck algorithm [15]}{18}{section*.35}\protected@file@percent }
\@writefile{toc}{\contentsline {subsubsection}{Lucas and Kanade algorithm [16]}{19}{section*.38}\protected@file@percent }
\@writefile{toc}{\contentsline {subsubsection}{Nagel algorithm [17]}{19}{section*.42}\protected@file@percent }
\@writefile{toc}{\contentsline {subsubsection}{Anandan algorithm [10]}{19}{section*.44}\protected@file@percent }
\@writefile{lof}{\contentsline {figure}{\numberline {3.10}{\ignorespaces Anandan Architecture.\relax }}{20}{figure.caption.45}\protected@file@percent }
\@writefile{toc}{\contentsline {subsubsection}{Fleet and Jepson [8]}{21}{section*.49}\protected@file@percent }
\@writefile{toc}{\contentsline {chapter}{\numberline {4}Environment setup}{22}{chapter.4}\protected@file@percent }
\@writefile{lof}{\addvspace {10\p@ }}
\@writefile{lot}{\addvspace {10\p@ }}
\@writefile{toc}{\contentsline {section}{\numberline {4.1}Expectations}{22}{section.4.1}\protected@file@percent }
\@writefile{toc}{\contentsline {section}{\numberline {4.2}Hardware platform}{22}{section.4.2}\protected@file@percent }
\@writefile{lof}{\contentsline {figure}{\numberline {4.1}{\ignorespaces Pynq-Z2 front side.\relax }}{23}{figure.caption.53}\protected@file@percent }
\@writefile{lof}{\contentsline {figure}{\numberline {4.2}{\ignorespaces Pynq-Z2 back side.\relax }}{23}{figure.caption.54}\protected@file@percent }
\@writefile{toc}{\contentsline {section}{\numberline {4.3}Starting point - block diagram}{24}{section.4.3}\protected@file@percent }
\@writefile{lof}{\contentsline {figure}{\numberline {4.3}{\ignorespaces PL block diagram - top module.\relax }}{24}{figure.caption.55}\protected@file@percent }
\@writefile{lof}{\contentsline {figure}{\numberline {4.4}{\ignorespaces PL block diagram - video module.\relax }}{24}{figure.caption.56}\protected@file@percent }
\@writefile{lof}{\contentsline {figure}{\numberline {4.5}{\ignorespaces PL block diagram - HDMI in module.\relax }}{25}{figure.caption.57}\protected@file@percent }
\@writefile{lof}{\contentsline {figure}{\numberline {4.6}{\ignorespaces PL block diagram - HDMI out module.\relax }}{25}{figure.caption.58}\protected@file@percent }
\@writefile{toc}{\contentsline {chapter}{\numberline {5}Algorithm implementations}{26}{chapter.5}\protected@file@percent }
\@writefile{lof}{\addvspace {10\p@ }}
\@writefile{lot}{\addvspace {10\p@ }}
\@writefile{toc}{\contentsline {section}{\numberline {5.1}Simple movement detection with and without filtration and result enhancement}{26}{section.5.1}\protected@file@percent }
\@writefile{toc}{\contentsline {subsection}{\numberline {5.1.1}Accelerators}{26}{subsection.5.1.1}\protected@file@percent }
\@writefile{toc}{\contentsline {subsubsection}{Colour converter}{26}{section*.59}\protected@file@percent }
\@writefile{toc}{\contentsline {subsubsection}{Pixel pack and Pixel unpack}{27}{section*.62}\protected@file@percent }
\@writefile{toc}{\contentsline {subsubsection}{Threshold}{27}{section*.64}\protected@file@percent }
\@writefile{toc}{\contentsline {subsubsection}{Gaussian blur}{27}{section*.67}\protected@file@percent }
\@writefile{lof}{\contentsline {figure}{\numberline {5.1}{\ignorespaces Example of Gaussian Blur. Upper left - input image, upper right - 3x3 kernel, bottom left - 5x5 kernel, bottom right 11x11 kernel. \relax }}{28}{figure.caption.69}\protected@file@percent }
\@writefile{lof}{\contentsline {figure}{\numberline {5.2}{\ignorespaces Gaussian blur - more clock cycles explanation. \relax }}{29}{figure.caption.72}\protected@file@percent }
\@writefile{toc}{\contentsline {subsubsection}{Dilatation}{29}{section*.73}\protected@file@percent }
\@writefile{lof}{\contentsline {figure}{\numberline {5.3}{\ignorespaces Dilate 3x3 window, rectangle shape, Upper left - input image, upper right - one iteration, bottom left - three iterations, bottom right five iterations. \relax }}{29}{figure.caption.74}\protected@file@percent }
\@writefile{toc}{\contentsline {subsubsection}{Absolute difference}{30}{section*.77}\protected@file@percent }
\@writefile{lof}{\contentsline {figure}{\numberline {5.4}{\ignorespaces Absdiff based on negative feedback approach.\relax }}{30}{figure.caption.79}\protected@file@percent }
\@writefile{lof}{\contentsline {figure}{\numberline {5.5}{\ignorespaces Absdiff based on VDMA image streaming.\relax }}{31}{figure.caption.80}\protected@file@percent }
\@writefile{lof}{\contentsline {figure}{\numberline {5.6}{\ignorespaces Absdiff based on burst DDR3 reading/writing with BRAM buffering outside video path.\relax }}{31}{figure.caption.81}\protected@file@percent }
\@writefile{lof}{\contentsline {figure}{\numberline {5.7}{\ignorespaces Maximum interval measurement\relax }}{32}{figure.caption.82}\protected@file@percent }
\@writefile{lof}{\contentsline {figure}{\numberline {5.8}{\ignorespaces BRAM measurement\relax }}{32}{figure.caption.83}\protected@file@percent }
\@writefile{toc}{\contentsline {section}{\numberline {5.2}Phase correlation only - sparse optical flow}{33}{section.5.2}\protected@file@percent }
\@writefile{toc}{\contentsline {subsection}{\numberline {5.2.1}Accelerators}{33}{subsection.5.2.1}\protected@file@percent }
\@writefile{toc}{\contentsline {subsubsection}{Forward/Inverse Fourier transform with result transposition and argmax}{33}{section*.85}\protected@file@percent }
\@writefile{lot}{\contentsline {table}{\numberline {5.1}{\ignorespaces FFT/IFFT accelerator architecture.\relax }}{33}{table.caption.86}\protected@file@percent }
\@writefile{lot}{\contentsline {table}{\numberline {5.2}{\ignorespaces Latency and resource requirements - synthesis results of various FFT architecture.\relax }}{34}{table.caption.87}\protected@file@percent }
\@writefile{toc}{\contentsline {subsubsection}{Complex multiplication with conjugate}{34}{section*.90}\protected@file@percent }
\@writefile{toc}{\contentsline {chapter}{\numberline {6}Tests and results}{35}{chapter.6}\protected@file@percent }
\@writefile{lof}{\addvspace {10\p@ }}
\@writefile{lot}{\addvspace {10\p@ }}
\@writefile{toc}{\contentsline {section}{\numberline {6.1}Resource and timing requirements}{35}{section.6.1}\protected@file@percent }
\@writefile{lot}{\contentsline {table}{\numberline {6.1}{\ignorespaces Synthesis resource requirement predictions.\relax }}{35}{table.caption.94}\protected@file@percent }
\@writefile{lof}{\contentsline {figure}{\numberline {6.1}{\ignorespaces Synthesis timing predictions.\relax }}{35}{figure.caption.95}\protected@file@percent }
\@writefile{lof}{\contentsline {figure}{\numberline {6.2}{\ignorespaces Synthesis flip flops requirement predictions.\relax }}{36}{figure.caption.96}\protected@file@percent }
\@writefile{lof}{\contentsline {figure}{\numberline {6.3}{\ignorespaces Synthesis look up tables requirement predictions.\relax }}{36}{figure.caption.97}\protected@file@percent }
\@writefile{toc}{\contentsline {section}{\numberline {6.2}Speed}{37}{section.6.2}\protected@file@percent }
\@writefile{toc}{\contentsline {subsection}{\numberline {6.2.1}Simple movement detection with and without enhance}{37}{subsection.6.2.1}\protected@file@percent }
\@writefile{lot}{\contentsline {table}{\numberline {6.2}{\ignorespaces Speed test results of different variant of first two algorithms.\relax }}{37}{table.caption.98}\protected@file@percent }
\@writefile{toc}{\contentsline {subsection}{\numberline {6.2.2}Phase correlation only}{37}{subsection.6.2.2}\protected@file@percent }
\@writefile{lot}{\contentsline {table}{\numberline {6.3}{\ignorespaces Third algorithm test case 1.\relax }}{38}{table.caption.99}\protected@file@percent }
\@writefile{lot}{\contentsline {table}{\numberline {6.4}{\ignorespaces Third algorithm test case 1.\relax }}{38}{table.caption.100}\protected@file@percent }
\@writefile{lot}{\contentsline {table}{\numberline {6.5}{\ignorespaces Speed test results of POC algorithm.\relax }}{39}{table.caption.101}\protected@file@percent }
\@writefile{toc}{\contentsline {chapter}{\numberline {7}Summary}{40}{chapter.7}\protected@file@percent }
\@writefile{lof}{\addvspace {10\p@ }}
\@writefile{lot}{\addvspace {10\p@ }}
\@writefile{toc}{\contentsline {subsection}{\numberline {7.0.1}Assessment of results}{40}{subsection.7.0.1}\protected@file@percent }
\@writefile{toc}{\contentsline {chapter}{Bibliography}{40}{subsection.7.0.1}\protected@file@percent }
\bibcite{OpenCV documentation - Optical Flow}{1}
\bibcite{The Aperture Problem - Toomey's Weblog}{2}
\bibcite{Crowded Scene Analysis: A Survey}{3}
\bibcite{Crowded Scene Analysis: A Survey}{4}
\bibcite{Motion history image: its variants and applications}{5}
\bibcite{ Robust motion estimation methods using gradient orientation information}{6}
\bibcite{Implementation of Optical Flow Algorithms in FPGA Platforms with embedded CPU}{7}
\bibcite{Systems and Experiment Performance of Optical Flow Techniques }{8}
\bibcite{Crowded Scene Analysis: A Survey}{9}
\bibcite{A Computational Framework and an Algorithm for the Measurement of Visual Motion}{10}
\bibcite{A Novel Four-Step Search Algorithm for Fast Block Motion Estimation}{11}
\bibcite{Adaptive Rood Pattern Search for Fast Block-Matching Motion Estimation}{12}
\bibcite{Fast Fourier Transform}{13}
\bibcite{Optical Flow Estimation using Phase Only-Correlation}{14}
\bibcite{Crowded Scene Analysis: A Survey}{15}
\bibcite{An Iterative Image Registration Technique with an Application to Stereo Vision}{16}
\bibcite{On the Estimation of Optical Flow: Relations between Different Approaches and Some New Results}{17}
\bibcite{HY101CTP LCD Datasheet}{18}
\bibcite{ft5x06 source code application and LCD Timing V2.0}{19}
\bibcite{Documentation uGFX}{20}
\bibcite{OpenCV documentation - Image Pyramids}{21}
\bibcite{LCD-TFT display controller (LTDC) on STM32 MCUs}{22}
